module gitlab.fel.cvut.cz/eroshiva/fractal-multi-agent-system

go 1.24.0

require (
	github.com/spf13/cobra v1.9.1
	gonum.org/v1/plot v0.15.0
	gotest.tools v2.2.0+incompatible
)

require (
	git.sr.ht/~sbinet/gg v0.6.0 // indirect
	github.com/ajstarks/svgo v0.0.0-20211024235047-1546f124cd8b // indirect
	github.com/campoy/embedmd v1.0.0 // indirect
	github.com/go-fonts/liberation v0.3.3 // indirect
	github.com/go-latex/latex v0.0.0-20240709081214-31cef3c7570e // indirect
	github.com/go-pdf/fpdf v0.9.0 // indirect
	github.com/golang/freetype v0.0.0-20170609003504-e2365dfdc4a0 // indirect
	github.com/google/go-cmp v0.6.0 // indirect
	github.com/inconshreveable/mousetrap v1.1.0 // indirect
	github.com/pkg/errors v0.9.1 // indirect
	github.com/pmezard/go-difflib v1.0.0 // indirect
	github.com/spf13/pflag v1.0.6 // indirect
	golang.org/x/image v0.24.0 // indirect
	golang.org/x/text v0.22.0 // indirect
)
